// Jest Snapshot v1, https://goo.gl/fbAQLP

exports[`MovieList Component matches the snapshot 1`] = `
<q-list-stub class="search-result-list">
  <div>
    <q-expansion-item-stub>
      <q-card-stub class="movie-details">
        <q-card-section-stub class="spinner-container">
          <q-spinner-hourglass-stub color="primary" size="2em"></q-spinner-hourglass-stub>
          <p>Searching information on Wikipedia...</p>
        </q-card-section-stub>
        <q-card-section-stub style="display: none;">

        </q-card-section-stub>
        <q-card-actions-stub>
          <q-btn-stub ripple="true" align="center" flat="true">IMDB</q-btn-stub>
          <!---->
        </q-card-actions-stub>
      </q-card-stub>
    </q-expansion-item-stub>
    <q-separator-stub spaced="true" inset="true"></q-separator-stub>
  </div>
</q-list-stub>
`;

exports[`MovieList Component matches the snapshot 2`] = `
<q-list-stub class="search-result-list">
  <div>
    <q-expansion-item-stub>
      <q-card-stub class="movie-details">
        <q-card-section-stub class="spinner-container" style="display: none;">
          <q-spinner-hourglass-stub color="primary" size="2em"></q-spinner-hourglass-stub>
          <p>Searching information on Wikipedia...</p>
        </q-card-section-stub>
        <q-card-section-stub>
          Some details from Wikipedia
        </q-card-section-stub>
        <q-card-actions-stub>
          <q-btn-stub ripple="true" align="center" flat="true">IMDB</q-btn-stub>
          <q-btn-stub ripple="true" align="center" flat="true">Wikipedia</q-btn-stub>
        </q-card-actions-stub>
      </q-card-stub>
    </q-expansion-item-stub>
    <q-separator-stub spaced="true" inset="true"></q-separator-stub>
  </div>
</q-list-stub>
`;
